<?xml version="1.0" encoding="utf-8"?>
<!-- Generator: Adobe Illustrator 25.0.0, SVG Export Plug-In . SVG Version: 6.00 Build 0)  -->
<svg version="1.1" id="Layer_1" xmlns="http://www.w3.org/2000/svg" xmlns:xlink="http://www.w3.org/1999/xlink" x="0px" y="0px"
	 viewBox="0 0 574.2 401.7" style="enable-background:new 0 0 574.2 401.7;" xml:space="preserve">
<style type="text/css">
	.st0{fill:#FFFFFF;stroke:#979797;stroke-miterlimit:10;}
	.st1{fill:none;stroke:#979797;stroke-miterlimit:10;}
</style>
<g id="Layer_2_1_">
	<g id="Layer_1-2">
		<polygon class="st0" points="0.5,0.5 0.5,401.2 57.5,401.2 64.2,389.7 150.1,389.7 156.7,401.2 573.7,401.2 573.7,0.5 		"/>
		<line class="st1" x1="0.5" y1="267.6" x2="573.7" y2="267.6"/>
		<line class="st1" x1="0.5" y1="134.1" x2="573.7" y2="134.1"/>
		<line class="st1" x1="287.1" y1="0.5" x2="287.1" y2="267.6"/>
	</g>
</g>
</svg>
